/*
WARNING: Do NOT edit the input and output ports in this file in a text
editor if you plan to continue editing the block that represents it in
the Block Editor! File corruption is VERY likely to occur.
*/
/*
Copyright (C) 2016  Intel Corporation. All rights reserved.
Your use of Intel Corporation's design tools, logic functions 
and other software and tools, and its AMPP partner logic 
functions, and any output files from any of the foregoing 
(including device programming or simulation files), and any 
associated documentation or information are expressly subject 
to the terms and conditions of the Intel Program License 
Subscription Agreement, the Intel Quartus Prime License Agreement,
the Intel MegaCore Function License Agreement, or other 
applicable license agreement, including, without limitation, 
that your use is for the sole purpose of programming logic 
devices manufactured by Intel and sold by Intel or its 
authorized distributors.  Please refer to the applicable 
agreement for further details.
*/
(header "graphic" (version "1.4"))
(pin
	(input)
	(rect -104 64 64 80)
	(text "INPUT" (rect 125 0 153 10)(font "Arial" (font_size 6)))
	(text "clk" (rect 5 0 19 12)(font "Arial" ))
	(pt 168 8)
	(drawing
		(line (pt 84 12)(pt 109 12))
		(line (pt 84 4)(pt 109 4))
		(line (pt 113 8)(pt 168 8))
		(line (pt 84 12)(pt 84 4))
		(line (pt 109 4)(pt 113 8))
		(line (pt 109 12)(pt 113 8))
	)
	(text "VCC" (rect 128 7 148 17)(font "Arial" (font_size 6)))
)
(pin
	(input)
	(rect -104 168 64 184)
	(text "INPUT" (rect 125 0 153 10)(font "Arial" (font_size 6)))
	(text "rst" (rect 5 0 16 17)(font "Intel Clear" ))
	(pt 168 8)
	(drawing
		(line (pt 84 12)(pt 109 12))
		(line (pt 84 4)(pt 109 4))
		(line (pt 113 8)(pt 168 8))
		(line (pt 84 12)(pt 84 4))
		(line (pt 109 4)(pt 113 8))
		(line (pt 109 12)(pt 113 8))
	)
	(text "VCC" (rect 128 7 148 17)(font "Arial" (font_size 6)))
)
(pin
	(input)
	(rect -96 376 72 392)
	(text "INPUT" (rect 125 0 153 10)(font "Arial" (font_size 6)))
	(text "ABus[7..0]" (rect 5 0 56 12)(font "Arial" ))
	(pt 168 8)
	(drawing
		(line (pt 84 12)(pt 109 12))
		(line (pt 84 4)(pt 109 4))
		(line (pt 113 8)(pt 168 8))
		(line (pt 84 12)(pt 84 4))
		(line (pt 109 4)(pt 113 8))
		(line (pt 109 12)(pt 113 8))
	)
	(text "VCC" (rect 128 7 148 17)(font "Arial" (font_size 6)))
)
(pin
	(input)
	(rect -144 40 24 56)
	(text "INPUT" (rect 125 0 153 10)(font "Arial" (font_size 6)))
	(text "BBus[7..0]" (rect 5 0 56 12)(font "Arial" ))
	(pt 168 8)
	(drawing
		(line (pt 84 12)(pt 109 12))
		(line (pt 84 4)(pt 109 4))
		(line (pt 113 8)(pt 168 8))
		(line (pt 84 12)(pt 84 4))
		(line (pt 109 4)(pt 113 8))
		(line (pt 109 12)(pt 113 8))
	)
	(text "VCC" (rect 128 7 148 17)(font "Arial" (font_size 6)))
)
(pin
	(input)
	(rect 0 744 168 760)
	(text "INPUT" (rect 125 0 153 10)(font "Arial" (font_size 6)))
	(text "start" (rect 5 0 27 12)(font "Arial" ))
	(pt 168 8)
	(drawing
		(line (pt 84 12)(pt 109 12))
		(line (pt 84 4)(pt 109 4))
		(line (pt 113 8)(pt 168 8))
		(line (pt 84 12)(pt 84 4))
		(line (pt 109 4)(pt 113 8))
		(line (pt 109 12)(pt 113 8))
	)
	(text "VCC" (rect 128 7 148 17)(font "Arial" (font_size 6)))
)
(pin
	(output)
	(rect 656 728 832 744)
	(text "OUTPUT" (rect 1 0 39 10)(font "Arial" (font_size 6)))
	(text "ready" (rect 90 0 118 12)(font "Arial" ))
	(pt 0 8)
	(drawing
		(line (pt 0 8)(pt 52 8))
		(line (pt 52 4)(pt 78 4))
		(line (pt 52 12)(pt 78 12))
		(line (pt 52 12)(pt 52 4))
		(line (pt 78 4)(pt 82 8))
		(line (pt 82 8)(pt 78 12))
		(line (pt 78 12)(pt 82 8))
	)
)
(pin
	(output)
	(rect 968 104 1144 120)
	(text "OUTPUT" (rect 1 0 39 10)(font "Arial" (font_size 6)))
	(text "OutBus[15..0]" (rect 90 0 158 12)(font "Arial" ))
	(pt 0 8)
	(drawing
		(line (pt 0 8)(pt 52 8))
		(line (pt 52 4)(pt 78 4))
		(line (pt 52 12)(pt 78 12))
		(line (pt 52 12)(pt 52 4))
		(line (pt 78 4)(pt 82 8))
		(line (pt 82 8)(pt 78 12))
		(line (pt 78 12)(pt 82 8))
	)
)
(symbol
	(rect 376 -144 528 32)
	(text "ALU" (rect 5 0 26 12)(font "Arial" ))
	(text "inst4" (rect 8 160 30 177)(font "Intel Clear" ))
	(port
		(pt 0 32)
		(input)
		(text "A[7..0]" (rect 0 0 33 12)(font "Arial" ))
		(text "A[7..0]" (rect 21 27 54 39)(font "Arial" ))
		(line (pt 0 32)(pt 16 32)(line_width 3))
	)
	(port
		(pt 0 48)
		(input)
		(text "B[7..0]" (rect 0 0 33 12)(font "Arial" ))
		(text "B[7..0]" (rect 21 43 54 55)(font "Arial" ))
		(line (pt 0 48)(pt 16 48)(line_width 3))
	)
	(port
		(pt 0 64)
		(input)
		(text "s[2..0]" (rect 0 0 31 12)(font "Arial" ))
		(text "s[2..0]" (rect 21 59 52 71)(font "Arial" ))
		(line (pt 0 64)(pt 16 64)(line_width 3))
	)
	(port
		(pt 0 80)
		(input)
		(text "n[2..0]" (rect 0 0 31 12)(font "Arial" ))
		(text "n[2..0]" (rect 21 75 52 87)(font "Arial" ))
		(line (pt 0 80)(pt 16 80)(line_width 3))
	)
	(port
		(pt 0 96)
		(input)
		(text "si" (rect 0 0 8 12)(font "Arial" ))
		(text "si" (rect 21 91 29 103)(font "Arial" ))
		(line (pt 0 96)(pt 16 96))
	)
	(port
		(pt 0 112)
		(input)
		(text "ci" (rect 0 0 8 12)(font "Arial" ))
		(text "ci" (rect 21 107 29 119)(font "Arial" ))
		(line (pt 0 112)(pt 16 112))
	)
	(port
		(pt 152 32)
		(output)
		(text "co" (rect 0 0 11 12)(font "Arial" ))
		(text "co" (rect 122 27 133 39)(font "Arial" ))
		(line (pt 152 32)(pt 136 32))
	)
	(port
		(pt 152 48)
		(output)
		(text "ov" (rect 0 0 12 12)(font "Arial" ))
		(text "ov" (rect 121 43 133 55)(font "Arial" ))
		(line (pt 152 48)(pt 136 48))
	)
	(port
		(pt 152 64)
		(output)
		(text "zero" (rect 0 0 20 12)(font "Arial" ))
		(text "zero" (rect 115 59 135 71)(font "Arial" ))
		(line (pt 152 64)(pt 136 64))
	)
	(port
		(pt 152 80)
		(output)
		(text "neg" (rect 0 0 17 12)(font "Arial" ))
		(text "neg" (rect 117 75 134 87)(font "Arial" ))
		(line (pt 152 80)(pt 136 80))
	)
	(port
		(pt 152 96)
		(output)
		(text "gt" (rect 0 0 9 12)(font "Arial" ))
		(text "gt" (rect 124 91 133 103)(font "Arial" ))
		(line (pt 152 96)(pt 136 96))
	)
	(port
		(pt 152 112)
		(output)
		(text "eq" (rect 0 0 11 12)(font "Arial" ))
		(text "eq" (rect 122 107 133 119)(font "Arial" ))
		(line (pt 152 112)(pt 136 112))
	)
	(port
		(pt 152 128)
		(output)
		(text "w[7..0]" (rect 0 0 33 12)(font "Arial" ))
		(text "w[7..0]" (rect 104 123 137 135)(font "Arial" ))
		(line (pt 152 128)(pt 136 128)(line_width 3))
	)
	(drawing
		(rectangle (rect 16 16 136 160))
	)
)
(symbol
	(rect 280 224 432 368)
	(text "Reg" (rect 5 0 25 12)(font "Arial" ))
	(text "PReg" (rect 8 128 33 145)(font "Intel Clear" ))
	(port
		(pt 0 32)
		(input)
		(text "A[7..0]" (rect 0 0 33 12)(font "Arial" ))
		(text "A[7..0]" (rect 21 27 54 39)(font "Arial" ))
		(line (pt 0 32)(pt 16 32)(line_width 3))
	)
	(port
		(pt 0 48)
		(input)
		(text "clk" (rect 0 0 14 12)(font "Arial" ))
		(text "clk" (rect 21 43 35 55)(font "Arial" ))
		(line (pt 0 48)(pt 16 48))
	)
	(port
		(pt 0 64)
		(input)
		(text "rst" (rect 0 0 12 12)(font "Arial" ))
		(text "rst" (rect 21 59 33 71)(font "Arial" ))
		(line (pt 0 64)(pt 16 64))
	)
	(port
		(pt 0 80)
		(input)
		(text "zero" (rect 0 0 20 12)(font "Arial" ))
		(text "zero" (rect 21 75 41 87)(font "Arial" ))
		(line (pt 0 80)(pt 16 80))
	)
	(port
		(pt 0 96)
		(input)
		(text "ldA" (rect 0 0 16 12)(font "Arial" ))
		(text "ldA" (rect 21 91 37 103)(font "Arial" ))
		(line (pt 0 96)(pt 16 96))
	)
	(port
		(pt 152 32)
		(output)
		(text "B[7..0]" (rect 0 0 33 12)(font "Arial" ))
		(text "B[7..0]" (rect 104 27 137 39)(font "Arial" ))
		(line (pt 152 32)(pt 136 32)(line_width 3))
	)
	(drawing
		(rectangle (rect 16 16 136 128))
	)
)
(symbol
	(rect 152 16 304 160)
	(text "Reg" (rect 5 0 25 12)(font "Arial" ))
	(text "BReg" (rect 8 128 33 145)(font "Intel Clear" ))
	(port
		(pt 0 32)
		(input)
		(text "A[7..0]" (rect 0 0 33 12)(font "Arial" ))
		(text "A[7..0]" (rect 21 27 54 39)(font "Arial" ))
		(line (pt 0 32)(pt 16 32)(line_width 3))
	)
	(port
		(pt 0 48)
		(input)
		(text "clk" (rect 0 0 14 12)(font "Arial" ))
		(text "clk" (rect 21 43 35 55)(font "Arial" ))
		(line (pt 0 48)(pt 16 48))
	)
	(port
		(pt 0 64)
		(input)
		(text "rst" (rect 0 0 12 12)(font "Arial" ))
		(text "rst" (rect 21 59 33 71)(font "Arial" ))
		(line (pt 0 64)(pt 16 64))
	)
	(port
		(pt 0 80)
		(input)
		(text "zero" (rect 0 0 20 12)(font "Arial" ))
		(text "zero" (rect 21 75 41 87)(font "Arial" ))
		(line (pt 0 80)(pt 16 80))
	)
	(port
		(pt 0 96)
		(input)
		(text "ldA" (rect 0 0 16 12)(font "Arial" ))
		(text "ldA" (rect 21 91 37 103)(font "Arial" ))
		(line (pt 0 96)(pt 16 96))
	)
	(port
		(pt 152 32)
		(output)
		(text "B[7..0]" (rect 0 0 33 12)(font "Arial" ))
		(text "B[7..0]" (rect 104 27 137 39)(font "Arial" ))
		(line (pt 152 32)(pt 136 32)(line_width 3))
	)
	(drawing
		(rectangle (rect 16 16 136 128))
	)
)
(symbol
	(rect 680 288 864 432)
	(text "REGA" (rect 5 0 36 12)(font "Arial" ))
	(text "RegA" (rect 8 128 36 140)(font "Arial" ))
	(port
		(pt 0 32)
		(input)
		(text "ABus[7..0]" (rect 0 0 51 12)(font "Arial" ))
		(text "ABus[7..0]" (rect 21 27 72 39)(font "Arial" ))
		(line (pt 0 32)(pt 16 32)(line_width 3))
	)
	(port
		(pt 0 48)
		(input)
		(text "clk" (rect 0 0 14 12)(font "Arial" ))
		(text "clk" (rect 21 43 35 55)(font "Arial" ))
		(line (pt 0 48)(pt 16 48))
	)
	(port
		(pt 0 64)
		(input)
		(text "rst" (rect 0 0 12 12)(font "Arial" ))
		(text "rst" (rect 21 59 33 71)(font "Arial" ))
		(line (pt 0 64)(pt 16 64))
	)
	(port
		(pt 0 80)
		(input)
		(text "lda" (rect 0 0 14 12)(font "Arial" ))
		(text "lda" (rect 21 75 35 87)(font "Arial" ))
		(line (pt 0 80)(pt 16 80))
	)
	(port
		(pt 0 96)
		(input)
		(text "shen" (rect 0 0 23 12)(font "Arial" ))
		(text "shen" (rect 21 91 44 103)(font "Arial" ))
		(line (pt 0 96)(pt 16 96))
	)
	(port
		(pt 0 112)
		(input)
		(text "si" (rect 0 0 8 12)(font "Arial" ))
		(text "si" (rect 21 107 29 119)(font "Arial" ))
		(line (pt 0 112)(pt 16 112))
	)
	(port
		(pt 184 32)
		(output)
		(text "AOut[7..0]" (rect 0 0 50 12)(font "Arial" ))
		(text "AOut[7..0]" (rect 121 27 171 39)(font "Arial" ))
		(line (pt 184 32)(pt 168 32)(line_width 3))
	)
	(port
		(pt 184 48)
		(output)
		(text "so" (rect 0 0 11 12)(font "Arial" ))
		(text "so" (rect 154 43 165 55)(font "Arial" ))
		(line (pt 184 48)(pt 168 48))
	)
	(drawing
		(rectangle (rect 16 16 168 128))
	)
)
(symbol
	(rect 328 616 480 792)
	(text "Cu_Mult" (rect 5 0 45 12)(font "Arial" ))
	(text "inst" (rect 8 160 25 172)(font "Arial" ))
	(port
		(pt 0 32)
		(input)
		(text "rst" (rect 0 0 12 12)(font "Arial" ))
		(text "rst" (rect 21 27 33 39)(font "Arial" ))
		(line (pt 0 32)(pt 16 32))
	)
	(port
		(pt 0 48)
		(input)
		(text "clk" (rect 0 0 14 12)(font "Arial" ))
		(text "clk" (rect 21 43 35 55)(font "Arial" ))
		(line (pt 0 48)(pt 16 48))
	)
	(port
		(pt 0 64)
		(input)
		(text "A0" (rect 0 0 12 12)(font "Arial" ))
		(text "A0" (rect 21 59 33 71)(font "Arial" ))
		(line (pt 0 64)(pt 16 64))
	)
	(port
		(pt 0 80)
		(input)
		(text "start" (rect 0 0 22 12)(font "Arial" ))
		(text "start" (rect 21 75 43 87)(font "Arial" ))
		(line (pt 0 80)(pt 16 80))
	)
	(port
		(pt 152 32)
		(output)
		(text "ldA" (rect 0 0 16 12)(font "Arial" ))
		(text "ldA" (rect 118 27 131 39)(font "Arial" ))
		(line (pt 152 32)(pt 136 32))
	)
	(port
		(pt 152 48)
		(output)
		(text "ldB" (rect 0 0 15 12)(font "Arial" ))
		(text "ldB" (rect 119 43 131 55)(font "Arial" ))
		(line (pt 152 48)(pt 136 48))
	)
	(port
		(pt 152 64)
		(output)
		(text "ldP" (rect 0 0 15 12)(font "Arial" ))
		(text "ldP" (rect 119 59 131 71)(font "Arial" ))
		(line (pt 152 64)(pt 136 64))
	)
	(port
		(pt 152 80)
		(output)
		(text "zero" (rect 0 0 20 12)(font "Arial" ))
		(text "zero" (rect 115 75 131 87)(font "Arial" ))
		(line (pt 152 80)(pt 136 80))
	)
	(port
		(pt 152 96)
		(output)
		(text "shen" (rect 0 0 23 12)(font "Arial" ))
		(text "shen" (rect 112 91 131 103)(font "Arial" ))
		(line (pt 152 96)(pt 136 96))
	)
	(port
		(pt 152 112)
		(output)
		(text "ready" (rect 0 0 28 12)(font "Arial" ))
		(text "ready" (rect 108 107 131 119)(font "Arial" ))
		(line (pt 152 112)(pt 136 112))
	)
	(port
		(pt 152 128)
		(output)
		(text "S0[2..0]" (rect 0 0 38 12)(font "Arial" ))
		(text "S0[2..0]" (rect 99 123 131 135)(font "Arial" ))
		(line (pt 152 128)(pt 136 128)(line_width 3))
	)
	(parameter
		"idle"
		"00"
		""
		(type "PARAMETER_UNSIGNED_BIN")	)
	(parameter
		"init"
		"01"
		""
		(type "PARAMETER_UNSIGNED_BIN")	)
	(parameter
		"loading"
		"10"
		""
		(type "PARAMETER_UNSIGNED_BIN")	)
	(parameter
		"MULT"
		"11"
		""
		(type "PARAMETER_UNSIGNED_BIN")	)
	(parameter
		"Multi"
		"11"
		""
		(type "PARAMETER_UNSIGNED_BIN")	)
	(drawing
		(rectangle (rect 16 16 136 160))
	)
	(annotation_block (parameter)(rect 864 576 1048 672))
)
(connector
	(pt 608 120)
	(pt 608 128)
)
(connector
	(pt 96 152)
	(pt -136 152)
)
(connector
	(pt -136 152)
	(pt -136 320)
)
(connector
	(pt 528 -112)
	(pt 608 -112)
)
(connector
	(pt 480 56)
	(pt 320 56)
	(bus)
)
(connector
	(pt 320 56)
	(pt 320 -112)
	(bus)
)
(connector
	(pt 320 -112)
	(pt 376 -112)
	(bus)
)
(connector
	(text "w[8]" (rect 591 -52 608 -31)(font "Intel Clear" )(vertical))
	(pt 608 -16)
	(pt 608 -112)
)
(connector
	(text "w[8..0]" (rect 632 163 649 194)(font "Intel Clear" )(vertical))
	(pt 648 200)
	(pt 648 -16)
	(bus)
)
(connector
	(pt -136 320)
	(pt 152 320)
)
(connector
	(pt 344 -96)
	(pt 376 -96)
	(bus)
)
(connector
	(pt 872 560)
	(pt 304 560)
)
(connector
	(pt -152 832)
	(pt 560 832)
)
(connector
	(pt -128 824)
	(pt 552 824)
)
(connector
	(pt 544 816)
	(pt -104 816)
)
(connector
	(pt 528 536)
	(pt 664 536)
)
(connector
	(pt 512 512)
	(pt 624 512)
)
(connector
	(pt -208 840)
	(pt 568 840)
	(bus)
)
(connector
	(pt -208 -80)
	(pt -208 840)
	(bus)
)
(connector
	(pt -208 -80)
	(pt 376 -80)
	(bus)
)
(connector
	(pt 152 48)
	(pt 24 48)
	(bus)
)
(connector
	(text "clk" (rect 74 56 88 73)(font "Intel Clear" ))
	(pt 96 72)
	(pt 64 72)
)
(connector
	(pt 96 64)
	(pt 96 72)
)
(connector
	(pt 96 72)
	(pt 96 152)
)
(connector
	(pt 96 64)
	(pt 152 64)
)
(connector
	(pt 152 80)
	(pt 104 80)
)
(connector
	(pt 104 80)
	(pt 104 176)
)
(connector
	(pt -152 832)
	(pt -152 112)
)
(connector
	(text "ldb" (rect -150 96 -135 113)(font "Intel Clear" ))
	(pt 152 112)
	(pt -152 112)
)
(connector
	(text "BOut[7..0]" (rect 314 32 362 49)(font "Intel Clear" ))
	(pt 344 48)
	(pt 304 48)
	(bus)
)
(connector
	(pt 344 -96)
	(pt 344 48)
	(bus)
)
(connector
	(text "out[15..8]" (rect 442 240 486 257)(font "Intel Clear" ))
	(pt 480 256)
	(pt 432 256)
	(bus)
)
(connector
	(pt 480 56)
	(pt 480 112)
	(bus)
)
(connector
	(pt 216 200)
	(pt 216 256)
	(bus)
)
(connector
	(pt 216 256)
	(pt 280 256)
	(bus)
)
(connector
	(pt -128 824)
	(pt -128 344)
)
(connector
	(pt 152 272)
	(pt 280 272)
)
(connector
	(pt 152 272)
	(pt 152 320)
)
(connector
	(pt 152 320)
	(pt 152 432)
)
(connector
	(pt 184 288)
	(pt 280 288)
)
(connector
	(pt 184 176)
	(pt 184 288)
)
(connector
	(pt 184 288)
	(pt 184 392)
)
(connector
	(pt -104 296)
	(pt -104 304)
)
(connector
	(pt -104 304)
	(pt -104 816)
)
(connector
	(text "zero" (rect -54 288 -34 305)(font "Intel Clear" ))
	(pt -104 304)
	(pt 280 304)
)
(connector
	(pt 256 344)
	(pt -128 344)
)
(connector
	(pt 256 344)
	(pt 256 320)
)
(connector
	(pt 256 320)
	(pt 280 320)
)
(connector
	(text "w[7..0]" (rect 538 -32 569 -15)(font "Intel Clear" ))
	(pt 608 -16)
	(pt 528 -16)
	(bus)
)
(connector
	(text "w[8..0]" (rect 538 -32 569 -15)(font "Intel Clear" ))
	(pt 648 -16)
	(pt 608 -16)
	(bus)
)
(connector
	(pt 608 392)
	(pt 608 352)
)
(connector
	(pt 544 336)
	(pt 680 336)
)
(connector
	(pt 544 432)
	(pt 544 336)
)
(connector
	(pt 608 352)
	(pt 680 352)
)
(connector
	(pt 560 400)
	(pt 680 400)
)
(connector
	(text "w[0]" (rect 544 324 561 345)(font "Intel Clear" )(vertical))
	(pt 560 200)
	(pt 560 400)
)
(connector
	(pt 624 512)
	(pt 624 368)
)
(connector
	(pt 624 368)
	(pt 680 368)
)
(connector
	(pt 664 536)
	(pt 664 384)
)
(connector
	(pt 664 384)
	(pt 680 384)
)
(connector
	(pt 912 320)
	(pt 864 320)
	(bus)
)
(connector
	(text "out[7..0]" (rect 896 229 913 267)(font "Intel Clear" )(vertical))
	(pt 912 112)
	(pt 912 320)
	(bus)
)
(connector
	(pt 872 336)
	(pt 864 336)
)
(connector
	(text "A0" (rect 856 539 873 551)(font "Intel Clear" )(vertical))
	(pt 872 560)
	(pt 872 336)
)
(connector
	(text "w[8..1]" (rect 226 184 257 201)(font "Intel Clear" ))
	(pt 216 200)
	(pt 560 200)
	(bus)
)
(connector
	(pt 560 200)
	(pt 648 200)
	(bus)
)
(connector
	(text "out[15..0]" (rect 938 96 982 113)(font "Intel Clear" ))
	(pt 912 112)
	(pt 968 112)
	(bus)
)
(connector
	(pt 120 384)
	(pt 120 480)
	(bus)
)
(connector
	(pt 120 480)
	(pt 648 480)
	(bus)
)
(connector
	(pt 72 384)
	(pt 120 384)
	(bus)
)
(connector
	(text "ABus[7..0]" (rect 632 429 649 477)(font "Intel Clear" )(vertical))
	(pt 648 480)
	(pt 648 320)
	(bus)
)
(connector
	(pt 648 320)
	(pt 680 320)
	(bus)
)
(connector
	(text "rst" (rect 26 160 37 177)(font "Intel Clear" ))
	(pt 64 176)
	(pt 104 176)
)
(connector
	(pt 104 176)
	(pt 184 176)
)
(connector
	(pt 160 392)
	(pt 184 392)
)
(connector
	(pt 184 392)
	(pt 608 392)
)
(connector
	(text "out[15..8]" (rect 490 96 534 113)(font "Intel Clear" ))
	(pt 480 112)
	(pt 912 112)
	(bus)
)
(connector
	(text "out[15..8]" (rect 464 208 481 252)(font "Intel Clear" )(vertical))
	(pt 480 112)
	(pt 480 256)
	(bus)
)
(connector
	(pt 640 736)
	(pt 656 736)
)
(connector
	(pt 176 664)
	(pt 328 664)
)
(connector
	(pt 176 432)
	(pt 176 664)
)
(connector
	(pt 304 560)
	(pt 304 680)
)
(connector
	(pt 304 680)
	(pt 328 680)
)
(connector
	(text "lda" (rect 490 632 505 649)(font "Intel Clear" ))
	(pt 512 648)
	(pt 480 648)
)
(connector
	(pt 560 832)
	(pt 560 664)
)
(connector
	(pt 544 696)
	(pt 480 696)
)
(connector
	(pt 552 824)
	(pt 552 680)
)
(connector
	(pt 544 816)
	(pt 544 696)
)
(connector
	(pt 528 712)
	(pt 480 712)
)
(connector
	(pt 528 536)
	(pt 528 712)
)
(connector
	(pt 512 512)
	(pt 512 648)
)
(connector
	(pt 568 744)
	(pt 480 744)
	(bus)
)
(connector
	(pt 568 840)
	(pt 568 744)
	(bus)
)
(connector
	(pt 160 392)
	(pt 160 648)
)
(connector
	(text "ldb" (rect 490 648 505 665)(font "Intel Clear" ))
	(pt 560 664)
	(pt 480 664)
)
(connector
	(pt 160 648)
	(pt 328 648)
)
(connector
	(pt 176 752)
	(pt 176 696)
)
(connector
	(pt 176 696)
	(pt 328 696)
)
(connector
	(text "ldp" (rect 490 664 505 681)(font "Intel Clear" ))
	(pt 552 680)
	(pt 480 680)
)
(connector
	(pt 640 728)
	(pt 480 728)
)
(connector
	(pt 640 736)
	(pt 640 728)
)
(connector
	(pt 152 432)
	(pt 176 432)
)
(connector
	(pt 176 432)
	(pt 544 432)
)
(connector
	(pt 160 752)
	(pt 168 752)
)
(connector
	(pt 168 752)
	(pt 176 752)
)
(junction (pt 608 -16))
(junction (pt 152 320))
(junction (pt 560 200))
(junction (pt 480 112))
(junction (pt 912 112))
(junction (pt 176 432))
(junction (pt 96 72))
(junction (pt 104 176))
(junction (pt 184 288))
(junction (pt -104 304))
(junction (pt 184 392))
(junction (pt 168 752))
